<?xml version="1.0" encoding="utf-8"?>
<!-- Generator: Adobe Illustrator 22.0.1, SVG Export Plug-In . SVG Version: 6.00 Build 0)  -->
<svg version="1.1" id="Layer_1" xmlns="http://www.w3.org/2000/svg" xmlns:xlink="http://www.w3.org/1999/xlink" x="0px" y="0px"
	 viewBox="0 0 86.2 107.9" style="enable-background:new 0 0 86.2 107.9;" xml:space="preserve">
<g id="Layer_2_1_">
</g>
<g>
	<ellipse transform="matrix(0.2761 -0.9611 0.9611 0.2761 13.0391 62.6318)" cx="48.1" cy="22.7" rx="1.1" ry="0.8"/>
	<ellipse transform="matrix(0.5 -0.866 0.866 0.5 3.8508 48.5876)" cx="44" cy="21" rx="1.1" ry="0.8"/>
	<path d="M40.1,32.3c0.8,0.4,1.6,0.6,2.5,0.6c0.6,0,1.1-0.1,1.6-0.3c1.1-0.4,2-1.3,2.3-2.4l0.2-0.6H46c-4.7-0.2-6.4-2.6-6.4-2.7
		L39,26l-0.3,1C38.7,27.2,37.6,31,40.1,32.3z M39.5,28.2c1.6,1.3,3.6,2.1,5.7,2.3c-0.3,0.6-0.8,1-1.5,1.2c-1.1,0.4-2.2,0.3-3.2-0.3
		C39.5,30.9,39.4,29.3,39.5,28.2z"/>
	<path d="M20,59.5c0-0.8,0.2-1.5,0.5-2.2l-5.1-2c0.1,0.5,0.2,1.1,0.2,1.6C16.6,58.3,18.9,59.2,20,59.5z"/>
	<path d="M28.9,58.9l0.1-0.4c-0.8-0.5-3.1-1.6-4.7-1.1c-0.3,0.4-1.5,2.2-0.5,3.3s3.3,1.2,4.5,1.1l0.2-0.7l-1.1-0.4l0.3-1.9
		L28.9,58.9L28.9,58.9z"/>
	<path d="M23.8,54.4c-0.6,0-1.7,1.7-2.2,2.8l-0.1,0.1c-0.3,0.7-1.7,4.2,1.3,6.1l0,0c1.7,0.7,3.5,1.3,5.3,1.7
		c0.6-0.1,3.9-0.8,4.6-6.1c0-0.8-0.1-1.5-0.3-2.2C32.1,55.4,25.3,54.3,23.8,54.4z M29.8,60.5l-0.7,2.3h-0.3c0,0-0.4,0-0.9,0
		c-1.3,0-3.6-0.2-4.8-1.5c-1.7-1.9,0.4-4.6,0.5-4.7l0.1-0.1h0.1c2.5-0.9,5.9,1.2,6,1.3l0.3,0.2l-0.5,1.9h-1v0.2L29.8,60.5z"/>
	<path d="M21.7,64.6l0.3-0.7c-1.1-0.8-1.8-2-2-3.4c-1.7-0.4-3.4-1.2-4.7-2.4c-0.1,0.2-0.2,0.3-0.3,0.4C16.7,61.1,19,63.2,21.7,64.6z
		"/>
	<path d="M28.7,68v0.3c14.2,3.9,25.1-4.4,28-6.9c-0.4-0.2-0.9-0.5-1.4-0.7c-5.3,3.5-11.5,5.4-17.8,5.5c-1.8,0-3.7-0.2-5.5-0.5
		C31.2,66.8,30,67.6,28.7,68z"/>
	<path d="M38.9,61.7c-2.4,0-4.2-0.1-5.1-0.2c-0.2,1.1-0.6,2.2-1.1,3.2c7.8,1.3,15.7-0.5,22.2-5c0-0.5-0.1-1-0.2-1.4
		C51,61.2,43.9,61.7,38.9,61.7z"/>
	<path d="M60.8,86.1c0.3-1,1.1-4.5-0.6-7.1c-1.1-1.5-2.8-2.5-4.7-2.6c0.1-0.6,0.1-1.1,0.1-1.8c1.8-1.1,3.5-2.2,5.1-3.4
		c0,0,4.3-4.7-3.1-9.3c-2,1.9-10.2,8.4-21.4,8.4c-2.8,0-5.5-0.4-8.2-1.1l-0.4-0.1V68c-1.6-0.4-3.2-0.9-4.8-1.5L22.1,68l-0.5-0.2
		c-3.1-1.5-5.7-3.7-7.6-6.6c-1.7,1.5-4.7,5.4-0.3,10.4c0.5,0.6,1.1,1.2,1.7,1.7c0.5,1.8,1.1,3.6,1.9,5.3c-1.4,1.4-2.3,3.2-2.4,5.2
		c0.1,1.7,0.9,3.3,2.2,4.4l0,0c0,0-5.5-0.9-7,3.9c-1.6,4.8,10.2,7.6,14.8,2.3l0.3,1.8c0,0,6.3-0.4,5.1-4.5c0.4-1.2,0.2-2.5-0.4-3.5
		c1-1.1,1.7-2.5,1.7-4C31.5,83,31,81.8,30.1,81c0.3-0.2,0.5-0.5,0.8-0.8c1.9,0.3,3.8,0.4,5.7,0.3c2.4,1.7,5.1,3,7.9,4
		c0,2,0.7,3.8,2,5.3c1.4,1.4,3.3,2.2,5.3,2.2c0.2,0.5,0.2,0.9,0.2,1.4c-0.1,0.6-0.1,7.6,6.1,7.6c6.1,0,8.2-5.1,5.3-12.8
		C62.7,87.5,61.8,86.8,60.8,86.1z M18.7,91.8c-0.3-0.9-0.9-1.6-1.8-2l0.5-0.9c0.1,0,2.2,1.2,2.3,2.9H18.7z M30.8,84.2
		c-0.1,1.3-0.6,2.5-1.5,3.4c-3.5,1.7-7.6,1.7-11.1-0.1c-1.2-0.9-2-2.3-2-3.8c0.1-1.6,0.8-3.1,1.9-4.3c2.2,3.7,5.8,6.6,11.4,2.2
		C30.3,82.4,30.7,83.3,30.8,84.2L30.8,84.2z M52.1,91.1c-1.7,0-3.4-0.7-4.7-1.9c-1-1.2-1.6-2.8-1.7-4.4c4.3,0.9,8.6-0.1,9.7-7.4
		c1.6,0.1,3,0.9,4,2.2c1.5,2.2,0.7,5.5,0.4,6.3C57.8,88.3,55.1,90.2,52.1,91.1z M60.3,92.3c-2-0.5-4.2,0.3-5.3,2l-0.9-0.5
		c0,0,2.4-3.6,6.5-2.5L60.3,92.3z"/>
	<path d="M72,48.4c7.8-3.7,2.9-6.3,2.9-6.3s-1.9-0.9-3.7,2c-0.9,0-1.9,0.2-2.8,0.4c-0.5-1.3-1.5-2.3-2.7-2.8
		c-2.6-1.1-5.6-0.1-6.1,0.1c-1.4-0.8-2.8-1.8-3.9-3c0.8-3.4,1-6.9,0.5-10.4c1.3-0.2,2.4-1,3-2.2c1,1.6,1.6,3.3,1.8,5.2
		c-1.6,0.3-2.7,1.8-2.4,3.4c0.2,1.2,1.1,2.1,2.3,2.4c0.2,0.1,0.4,0.1,0.7,0.1c1.6,0,3-1.3,3-2.9c0-1.4-1-2.6-2.3-2.9h-0.1
		c1.6-2.7,3.7-14-4.9-20.7c-6.8-5.2-13.1-1.3-15.6,0.8c-1.8,0-3.5,0.6-4.9,1.8c-1.2,1.2-1.9,2.8-1.8,4.5c-0.3,0.2-0.9,0.8-1.6,1.6
		l-0.2-0.1c0-1,0-5.1-2.6-6.9c-0.3-0.2-0.7-0.4-1-0.5c0.5-0.8,0.6-1.8,0.3-2.7c0,0,2.8-2.4,1.6-4s-4.6-0.6-6,2.4c0,0-7-5-11.3-1.5
		c-4.2,3.4,1.5,8.3,5.9,9.7c-0.3,0.5-0.5,1.1-0.6,1.7c-0.6,3.4,2.7,6.5,2.7,6.6l0,0c-0.3,2-0.1,4,0.4,5.9c0,0,1.8,4.9,1.2,6.4
		c-0.6,1.4-6.9,5.4-8.4,19.7l5.5,2.2c0.5-0.9,1.5-2.6,2.6-2.9c0.3-4.5,2.9-9.4,4.2-11.6c0.2,0.3,0.4,0.6,0.6,0.9
		c-1.3,2.2-3.5,6.6-3.8,10.6c1.9,0.1,3.8,0.5,5.6,0.9c0.8-2.5,1.7-4.9,2.7-7.3l1,0.2c-1,2.4-2,4.9-2.7,7.4c1.2,0.5,2.2,1,2.4,1.8
		c0.2,0.7,0.3,1.4,0.4,2.1c2.7,0.2,15.7,0.9,20.4-3.2c0.2-0.4,1-2.6-0.1-3.6c1.1,0.4,2.1,0.7,3.2,0.9c1.5,0.9,3.3,1.4,5.1,1.4
		c0.5,0,1.1,0,1.6-0.1c0.5,0.5,1.2,1,1.9,1.3c4.5,8.8,9.9,3.2,9.9,3.2C80.1,51.5,72,48.4,72,48.4z M63.2,33.4
		c0.6,0.9,0.3,2.1-0.6,2.7s-2.1,0.3-2.7-0.6c-0.3-0.4-0.4-1-0.2-1.4c0.2-1,1.3-1.7,2.3-1.5C62.5,32.6,62.9,32.9,63.2,33.4z
		 M37.4,14.1c0.9-0.8,2.1-1.3,3.3-1.4C54.3,12.4,59,22.9,59,22.9c0,0.9-0.2,1.7-0.6,2.5l0,0c-0.4,1.1-1.4,2-2.7,2
		c-0.8-0.6-1.5-1.4-2-2.2c0,0-0.1-0.2-0.1-0.4l-0.1-0.4l0,0c-0.9-2.4-2.6-4.4-4.8-5.7c-2.8-1.6-6.2-1.7-10.2-0.6
		c-0.9,0.1-1.8-0.1-2.7-0.4C35.8,16.4,36.4,15.1,37.4,14.1z M51.6,26.7c-0.9-0.5-1.9-0.9-2.8-1.2c-0.1-0.4-0.2-0.7-0.5-1l-0.8,0.6
		c0.2,0.2,0.3,0.5,0.3,0.8c-0.3,0.4-1.5,1.6-4,0.4c-2.6-1.2-2.4-2.5-2.3-2.8c0.2-0.2,0.5-0.3,0.8-0.4v-1c-0.4,0-0.9,0.2-1.2,0.4
		c-0.8-0.6-1.7-1.2-2.7-1.6c0.2-0.7,0.5-1.5,0.7-1.9c3.6-1,6.8-0.9,9.2,0.5c2.1,1.3,3.8,3.3,4.6,5.7C52.4,25.7,52,26.2,51.6,26.7z
		 M35.5,18.7c0.8,0.3,1.6,0.4,2.4,0.5c-0.2,0.5-0.4,1.2-0.5,1.6c-0.9,0-2.7,0.1-3.3,1.3c-0.4,1,0.1,2.2,1.7,3.8l0.7-0.8
		c-1.7-1.7-1.6-2.5-1.5-2.7c0.3-0.6,1.9-0.7,2.7-0.7c1,0.3,2,0.9,2.8,1.5c-0.1,0.4-0.1,0.9,0.1,1.3c0.5,1.2,1.5,2.1,2.8,2.6
		c3.1,1.5,4.7,0,5.2-0.6c1,0.3,2,0.8,2.9,1.3c0.4,0.4,1.3,1.6,1,2.4c-0.2,0.6-1.3,0.9-3.1,1v1c2.2,0,3.5-0.6,4-1.6
		c0.5-1.2-0.5-2.6-1-3.2c0.2-0.3,0.6-0.7,0.9-1c0.5,0.8,1.2,1.4,1.9,2c0.9,7.8-0.5,13.4-4.4,16.8c-6.1,5.4-16.7,3.1-17.9,2.8
		c-4.3-3.6-6.4-7.6-6.5-12.1C26.3,27.4,34.1,19.9,35.5,18.7z M23.9,10.7L23,11.2c-0.5-0.9-2-0.2-2.1-0.2l-0.4-0.9
		C21.4,9.7,23.1,9.4,23.9,10.7z M22.4,23c-0.8-0.9-2.4-3.1-2-5.2c0.3-1.7,1.7-3.1,4.1-4.2s4.2-1.2,5.5-0.3c1.8,1.2,2,4.1,2.1,5.5
		c-1.9-0.9-4.8-1.7-7.4,0.6C23.5,20.3,22.8,21.6,22.4,23z M64.7,50.6c-1.8,1.7-1.8,3.2-1.3,4.3c-1.8,0.2-3.6-0.2-5.2-1
		c-1.1-3.9-0.1-8.2,2.5-11.3c1.5-0.5,3.1-0.4,4.6,0.1c1,0.5,1.8,1.3,2.2,2.3C65.3,45.9,64.1,48.3,64.7,50.6L64.7,50.6z M69,51.2
		c-0.5,0-1-0.2-1.3-0.5l0.7-0.7c0.7,0.7,2-0.3,2-0.4l0.6,0.8C70.5,50.9,69.8,51.2,69,51.2L69,51.2z"/>
</g>
</svg>
