<?xml version="1.0" encoding="utf-8"?>
<!-- Generator: Adobe Illustrator 22.0.1, SVG Export Plug-In . SVG Version: 6.00 Build 0)  -->
<svg version="1.1" id="Layer_1" xmlns="http://www.w3.org/2000/svg" xmlns:xlink="http://www.w3.org/1999/xlink" x="0px" y="0px"
	 viewBox="0 0 72 90" style="enable-background:new 0 0 72 90;" xml:space="preserve">
<g>
	<path d="M67.3,33.9c0-1.2-1-2.2-2.3-2.2H58c-1.2,0-2.3,0.9-2.3,2.2l-1.3,8.7c0,1.2,1,2.3,2.3,2.3h0.7l1.7,17.3
		c0,0.8,0.6,1.3,1.4,1.3h2c0.8,0,1.4-0.5,1.4-1.3l1.7-17.3h0.7c1.3,0,2.3-1.1,2.3-2.3L67.3,33.9z"/>
	<circle cx="61.5" cy="26.4" r="3.8"/>
	<path d="M14,31.8H6.9c-1.2,0-2.3,0.9-2.3,2.2l-1.3,8.7c0,1.2,1,2.3,2.3,2.3h0.7l1.7,17.3c0,0.8,0.6,1.3,1.4,1.3h2
		c0.8,0,1.4-0.5,1.4-1.3l1.7-17.3h0.7c1.3,0,2.3-1.1,2.3-2.3l-1.3-8.7C16.3,32.7,15.2,31.8,14,31.8z"/>
	<circle cx="10.5" cy="26.4" r="3.8"/>
	<path d="M29.4,41.3l0.8,5.4L32.5,69c0,1,0.8,1.7,1.8,1.7h2.5c1,0,1.8-0.7,1.8-1.7l2.2-22.3h0.9c1.6,0,2.9-1.4,2.9-3L43,32.5
		c0-1.6-1.3-2.8-2.9-2.8H31c-0.6,0-1.1,0.1-1.5,0.4L26,23.3c-0.6-1.2-2.1-1.7-3.3-1.1l-0.1,0.1c-1.2,0.6-1.7,2.1-1.1,3.3l7.7,15.3
		C29.2,41.1,29.3,41.2,29.4,41.3z"/>
	<circle cx="35.5" cy="22.9" r="4.9"/>
	<path d="M35.5,14.6c0.5,0,1-0.4,1-1V7.7c0-0.5-0.4-1-1-1c-0.5,0-1,0.4-1,1v5.9C34.5,14.2,35,14.6,35.5,14.6z"/>
	<path d="M44.9,9.8c-0.5-0.3-1.1-0.1-1.3,0.4l-3,5.1c-0.3,0.5-0.1,1.1,0.4,1.3c0.2,0.1,0.3,0.1,0.5,0.1c0.3,0,0.7-0.2,0.9-0.5l3-5.1
		C45.5,10.7,45.4,10.1,44.9,9.8z"/>
	<path d="M25.8,11.1l0.9,1.5l2.1,3.6c0.1,0.1,0.2,0.2,0.3,0.3c0.2,0.1,0.4,0.2,0.6,0.2c0.2,0,0.3,0,0.5-0.1c0.5-0.3,0.6-0.9,0.4-1.3
		l-3-5.1c-0.1-0.2-0.4-0.4-0.6-0.5c-0.2-0.1-0.5,0-0.7,0.1c-0.4,0.2-0.6,0.7-0.5,1.1C25.7,11,25.8,11.1,25.8,11.1z"/>
	<path d="M41.5,73.5H29.5c-1,0-1.8,0.8-1.8,1.8L26,81.5c0,1,0.8,1.8,1.8,1.8h15.5c1,0,1.8-0.8,1.8-1.8l-1.8-6.3
		C43.2,74.3,42.4,73.5,41.5,73.5z"/>
</g>
</svg>
